954291 828880 525
37662 852878 525
297008 104705 443
275672 148290 443
274755 967460 525
197564 108573 383
841000 238713 525
727175 289623 509
539516 860875 525
521290 360897 470
835506 534863 509
38348 393303 443
39452 959191 525
407773 804691 509
718240 677607 504
49658 13497 324
356303 199586 443
503340 773975 509
428903 496529 444
463423 370528 449
980374 196177 525
593111 334010 470
262030 798777 509
287241 109479 443
977625 20732 525
191196 152723 383
208668 934960 525
946928 261979 525
147537 921912 525
333590 561642 470
353286 571160 470
697844 446325 509
363168 580718 470
327666 966507 525
142331 389716 443
213538 591113 470
34811 749777 509
462189 17698 449
590835 691436 509
480597 717520 509
888650 374142 525
931736 200658 525
743471 121894 509
378618 565391 470
501825 541250 470
479442 756446 509
956482 994464 458
574210 98302 470
285314 857699 525
511980 92588 470
816864 932759 525
607919 172740 470
856031 100508 525
690668 94382 509
765236 805115 468
303001 906569 525
989560 240494 525
252625 996807 525
738785 173787 509
874933 531927 525
594917 185452 470
565871 727201 509
400695 731516 509
370578 767715 509
402748 840764 525
672277 878852 525
772473 448108 509
315905 996840 525
308384 335124 384
822287 725678 468
335578 399702 441
701177 783355 504
561142 509002 470
255293 938122 525
918744 503362 525
682499 514670 509
241281 13539 443
729591 910456 525
937427 629669 525
628658 203967 509
716029 617493 509
555817 859614 525
801763 815954 406
392123 738003 509
16082 569923 470
137760 105736 354
559452 552838 421
933158 105432 525
323975 116248 443
274475 194570 443
89975 366726 443
675907 390818 509
15739 515349 470
727590 771880 468
416543 170924 449
225397 569489 470
947250 155354 525
807717 370033 509
952191 108021 525
324339 388389 441
926673 615789 525
983874 516910 525
746427 856207 525
178645 868088 525
564407 773721 509
769822 827298 468
48826 622167 470
530561 211096 470
941937 301570 525
391230 986923 525
755995 293219 509
108337 151654 375
791010 154241 509
987559 789281 525
558300 471354 470
331312 32140 443
124520 893228 525
352592 635412 509
852772 361824 525
399355 141259 443
510531 945352 525
467499 156791 449
738589 738934 424
145536 99168 375
430823 143784 449
330351 871482 525
661551 461717 509
280959 324693 389
415391 149011 449
835990 33704 509
523940 262109 470
910643 869797 476
894277 597408 525
710156 86986 509
326184 778321 509
449374 156448 449
958164 75061 525
751784 381046 509
656730 56036 509
316424 401054 441
469125 264505 449
887371 62560 525
596522 990096 525
38040 761607 509
212937 862026 525
791322 299984 509
854497 429339 525
636627 492712 509
34363 113197 354
76185 252566 443
200517 917244 525
435508 643635 509
146821 64288 375
306674 443725 449
512113 291022 470
658185 84543 509
57826 877217 525
341386 448939 449
1483 611836 470
451002 896083 525
801628 805692 406
756135 58309 509
439122 148789 449
208105 407464 443
420444 680205 509
352781 323943 441
440505 389333 449
327632 418191 449
885693 999537 507
7483 152327 375
132229 298774 443
778005 388606 509
900641 976414 507
362277 351834 410
764009 301513 509
103264 634405 509
275859 134994 443
113880 295529 443
82951 706677 509
746318 810272 468
818904 307820 509
903625 609426 525
536491 550816 452
819047 217794 509
929621 129912 525
62446 546349 470
620419 80299 470
698141 722814 504
342494 377639 441
714805 955565 525
938393 346082 525
75594 317374 443
707416 750042 424
995476 8329 525
789338 633492 504
342753 611408 470
950325 940250 383
383084 89510 443
349151 699700 509
436827 789342 509
